Exploratory Data Analysis
…
Sex chromosomes experience lower rates of recombination

Also correlated with higher transposon density and lower gene density

These trends are more true for non-recombining Y chromosomes than X chromosomes

Recombination can occur between the two X chromosomes in females

First Peek

First, let’s just take a quick look at the gene density data set and ask ourselves what we’re dealing with. On a very basic level, what kind of variables do we have?

as_tibble(geneDensity) # prints the first 10 rows & the col types

## # A tibble: 48,952 x 8
##    chromosome  start     end winNum numElements numBases winSize density
##    <chr>       <dbl>   <dbl>  <dbl>       <dbl>    <dbl>   <dbl>   <dbl>
##  1 LG_N            0 1000000      1           1     2499 1000000 0.00250
##  2 LG_N        20000 1020000      2           1     2499 1000000 0.00250
##  3 LG_N        40000 1040000      3           2    10158 1000000 0.0102 
##  4 LG_N        60000 1060000      4           2    11583 1000000 0.0116 
##  5 LG_N        80000 1080000      5           2    11583 1000000 0.0116 
##  6 LG_N       100000 1100000      6           2    11583 1000000 0.0116 
##  7 LG_N       120000 1120000      7           2    11583 1000000 0.0116 
##  8 LG_N       140000 1140000      8           2    11583 1000000 0.0116 
##  9 LG_N       160000 1160000      9           2    11583 1000000 0.0116 
## 10 LG_N       180000 1180000     10           2    11583 1000000 0.0116 
## # … with 48,942 more rows
…
Look at that handy warning! It lets us know that one value was thrown out: “removed 1 rows”. This view helps us to get a better general understanding of how this categorical “chromosome” value might relate to gene density. However! It’s important not to throw out data unless you have good reason to believe it doesn’t belong in the data set.

Bonus note: you can use the coord_cartesian function instead of ylim and it only rescales, without removing any values. It won’t warn you if any of your data points are beyond the limits of the axes, though.

Separate by category

Definitely more interesting to compare across the categories built into our data (here, chromosomes) to see how the gene density looks in each one separately. We can see whether the global pattern is present in each category. But how can we get all that info in one graph??

First step is to ask ourselves what we currently have in our data. If our category for comparison is chromosome, what independent variables are shared among them that could facilitate comparison of the dependent gene density variable?

as_tibble(geneDensity)

## # A tibble: 48,952 x 8
##    chromosome  start     end winNum numElements numBases winSize density
##    <chr>       <dbl>   <dbl>  <dbl>       <dbl>    <dbl>   <dbl>   <dbl>
##  1 LG_N            0 1000000      1           1     2499 1000000 0.00250
##  2 LG_N        20000 1020000      2           1     2499 1000000 0.00250
##  3 LG_N        40000 1040000      3           2    10158 1000000 0.0102 
##  4 LG_N        60000 1060000      4           2    11583 1000000 0.0116 
##  5 LG_N        80000 1080000      5           2    11583 1000000 0.0116 
##  6 LG_N       100000 1100000      6           2    11583 1000000 0.0116 
##  7 LG_N       120000 1120000      7           2    11583 1000000 0.0116 
##  8 LG_N       140000 1140000      8           2    11583 1000000 0.0116 
##  9 LG_N       160000 1160000      9           2    11583 1000000 0.0116 
## 10 LG_N       180000 1180000     10           2    11583 1000000 0.0116 
## # … with 48,942 more rows
…
The sex chromosome (LG_X) will have higher LTR density

Note: preparing data for analysis is generally the most time-consuming part of any project. Establishing what you need to do with your data in order to test your hypotheses & thoroughly exploring your data and its properties are extremely useful steps in this process.

How do we explore these questions?

We need to relate gene density, LTR density, and LTR age. Do we have this data?

Is it currently in a form where we can make comparisons?

Based on the properties of our gene and LTR density data sets, what are the shared “units”? Essentially, what are we trying to compare within and among each chromosome?

as_tibble(geneDensity)

## # A tibble: 48,952 x 8
##    chromosome  start     end winNum numElements numBases winSize density
##    <chr>       <dbl>   <dbl>  <dbl>       <dbl>    <dbl>   <dbl>   <dbl>
##  1 LG_N            0 1000000      1           1     2499 1000000 0.00250
##  2 LG_N        20000 1020000      2           1     2499 1000000 0.00250
##  3 LG_N        40000 1040000      3           2    10158 1000000 0.0102 
##  4 LG_N        60000 1060000      4           2    11583 1000000 0.0116 
##  5 LG_N        80000 1080000      5           2    11583 1000000 0.0116 
##  6 LG_N       100000 1100000      6           2    11583 1000000 0.0116 
##  7 LG_N       120000 1120000      7           2    11583 1000000 0.0116 
##  8 LG_N       140000 1140000      8           2    11583 1000000 0.0116 
##  9 LG_N       160000 1160000      9           2    11583 1000000 0.0116 
## 10 LG_N       180000 1180000     10           2    11583 1000000 0.0116 
## # … with 48,942 more rows

as_tibble(ltrDensity)

## # A tibble: 48,952 x 8
##    chromosome  start     end winNum numElements numBases winSize density
##    <chr>       <dbl>   <dbl>  <dbl>       <dbl>    <dbl>   <dbl>   <dbl>
##  1 LG_N            0 1000000      1         396   258184 1000000   0.258
##  2 LG_N        20000 1020000      2         400   274748 1000000   0.275
##  3 LG_N        40000 1040000      3         390   271692 1000000   0.272
##  4 LG_N        60000 1060000      4         390   271540 1000000   0.272
##  5 LG_N        80000 1080000      5         386   268414 1000000   0.268
##  6 LG_N       100000 1100000      6         380   268519 1000000   0.269
##  7 LG_N       120000 1120000      7         396   285314 1000000   0.285
##  8 LG_N       140000 1140000      8         396   284053 1000000   0.284
##  9 LG_N       160000 1160000      9         396   270360 1000000   0.270
## 10 LG_N       180000 1180000     10         388   267071 1000000   0.267
## # … with 48,942 more rows

The basic “unit” in this data is the 1Mb window. Because this is shared across the two data sets, we can use it to join them together. Excellent!

What about the LTR age data set?

as_tibble(ltrAge)

## # A tibble: 42,339 x 4
##    chrom    start      end     K2P
##    <chr>    <dbl>    <dbl>   <dbl>
##  1 LG_2  61204840 61212964 0.0202 
##  2 LG_2  61219360 61221366 0.0538 
##  3 LG_2  61236795 61241286 0.00514
##  4 LG_2  61241905 61249226 0.00100
##  5 LG_2  61268475 61269268 0.0808 
##  6 LG_2  61337049 61348048 0.00472
##  7 LG_2  61365365 61372328 0.0260 
##  8 LG_2  61382447 61389344 0.0617 
##  9 LG_2  61396331 61407449 0.00800
## 10 LG_2  61413022 61414052 0.0984 
## # … with 42,329 more rows
…
Are these data “long” or “wide”? #throwback (Side note: https://github.com/rstudio/cheatsheets/blob/master/data-import.pdf is a great reference)

When you join data sets, it’s important to think about what columns you’re joining the tables “by”. Basically, what columns are shared?

As a bonus, we can change the start variable so that it’s measured in 10kb increments instad of 1bp so our X axis labels are easier to interpret.

densities <- full_join(simpleLTRdensity,simpleGeneDensity,
                       by=c("chromosome","start","elementType","density")) %>%
  mutate(start=start/10000) %>%
  group_by(chromosome,elementType)
  
as_tibble(densities)

## # A tibble: 97,904 x 4
##    chromosome start elementType density
##    <chr>      <dbl> <chr>         <dbl>
##  1 LG_N           0 LTR           0.258
##  2 LG_N           2 LTR           0.275
##  3 LG_N           4 LTR           0.272
##  4 LG_N           6 LTR           0.272
##  5 LG_N           8 LTR           0.268
##  6 LG_N          10 LTR           0.269
##  7 LG_N          12 LTR           0.285
##  8 LG_N          14 LTR           0.284
##  9 LG_N          16 LTR           0.270
## 10 LG_N          18 LTR           0.267
## # … with 97,894 more rows
…
This looks like the kind of information we want! If we squint, we can almost see that increases in gene density seem to correlate with decreases in LTR density.

Is gene density high when LTR age is high?

First Pass!

Let’s take a look at the LTR age data.

as_tibble(ltrAge)

## # A tibble: 42,339 x 4
##    chrom    start      end     K2P
##    <chr>    <dbl>    <dbl>   <dbl>
##  1 LG_2  61204840 61212964 0.0202 
##  2 LG_2  61219360 61221366 0.0538 
##  3 LG_2  61236795 61241286 0.00514
##  4 LG_2  61241905 61249226 0.00100
##  5 LG_2  61268475 61269268 0.0808 
##  6 LG_2  61337049 61348048 0.00472
##  7 LG_2  61365365 61372328 0.0260 
##  8 LG_2  61382447 61389344 0.0617 
##  9 LG_2  61396331 61407449 0.00800
## 10 LG_2  61413022 61414052 0.0984 
## # … with 42,329 more rows
…
You might remember that in last lecture, when you encountered missing values in your data, you could replace them with 0. If we want to put our LTR age data into the same kind of windows that the gene density data is in, we’re going to have some windows without any age data. Do you think that setting LTR age to 0 would be a good way to handle the windows with missing age data?

windowedAges <- ltrAge %>%
  mutate(chromosome = chrom,            # get the "chromosome" col name to match
         age = K2P,                     # might as well give a better name
         winNum = floor(start/20000)) %>% # bin the start (20Mb) & round 
  select(chromosome,winNum,age)
  
genesPlusAges <- geneDensity %>%
  select("chromosome","winNum","density") %>%
  full_join(windowedAges, by=c("chromosome","winNum") )

as_tibble(genesPlusAges)

## # A tibble: 57,617 x 4
##    chromosome winNum density      age
##    <chr>       <dbl>   <dbl>    <dbl>
##  1 LG_N            1 0.00250  0.0122 
##  2 LG_N            2 0.00250  0.0508 
##  3 LG_N            3 0.0102   0.0181 
##  4 LG_N            4 0.0116   0.111  
##  5 LG_N            5 0.0116  NA      
##  6 LG_N            6 0.0116   0.0343 
##  7 LG_N            6 0.0116   0.00505
##  8 LG_N            7 0.0116   0.0277 
##  9 LG_N            8 0.0116   0.0318 
## 10 LG_N            9 0.0116   0.0629 
## # … with 57,607 more rows
…
