Introduction to course
…
iris <- read_csv('data/iris.csv')

## Parsed with column specification:
## cols(
##   sepal_length = col_double(),
##   sepal_width = col_double(),
##   petal_length = col_double(),
##   petal_width = col_double(),
##   species = col_character()
## )

iris

## # A tibble: 150 x 5
##    sepal_length sepal_width petal_length petal_width species
##           <dbl>       <dbl>        <dbl>       <dbl> <chr>  
##  1          5.1         3.5          1.4         0.2 setosa 
##  2          4.9         3            1.4         0.2 setosa 
##  3          4.7         3.2          1.3         0.2 setosa 
##  4          4.6         3.1          1.5         0.2 setosa 
##  5          5           3.6          1.4         0.2 setosa 
##  6          5.4         3.9          1.7         0.4 setosa 
##  7          4.6         3.4          1.4         0.3 setosa 
##  8          5           3.4          1.5         0.2 setosa 
##  9          4.4         2.9          1.4         0.2 setosa 
## 10          4.9         3.1          1.5         0.1 setosa 
## # … with 140 more rows
…
