Data wrangling and visualization in the tidyverse
…
surveys

## # A tibble: 34,786 x 13
##    record_id month   day  year plot_id species_id sex   hindfoot_length weight
##        <dbl> <dbl> <dbl> <dbl>   <dbl> <chr>      <chr>           <dbl>  <dbl>
##  1         1     7    16  1977       2 NL         M                  32     NA
##  2        72     8    19  1977       2 NL         M                  31     NA
##  3       224     9    13  1977       2 NL         <NA>               NA     NA
##  4       266    10    16  1977       2 NL         <NA>               NA     NA
##  5       349    11    12  1977       2 NL         <NA>               NA     NA
##  6       363    11    12  1977       2 NL         <NA>               NA     NA
##  7       435    12    10  1977       2 NL         <NA>               NA     NA
##  8       506     1     8  1978       2 NL         <NA>               NA     NA
##  9       588     2    18  1978       2 NL         M                  NA    218
## 10       661     3    11  1978       2 NL         <NA>               NA     NA
## # … with 34,776 more rows, and 4 more variables: genus <chr>, species <chr>,
## #   taxa <chr>, plot_type <chr>
…
Since we will use the same filtered and grouped data frame in multiple code chunks below, we could assign this subset of the data to a new variable and use this variable in the subsequent code chunks instead of typing out the functions each time.

filtered_surveys <- surveys %>%
    filter(!is.na(weight) & !is.na(sex)) %>%
    group_by(genus, sex)

If you want to display more data, you can use the print() function at the end of your chain with the argument n specifying the number of rows to display.

filtered_surveys %>%
    summarize(mean_weight = mean(weight)) %>%
    print(n = 15) # Will change the knitted output, not the notebook

## # A tibble: 20 x 3
## # Groups:   genus [10]
##    genus           sex   mean_weight
##    <chr>           <chr>       <dbl>
##  1 Baiomys         F            9.16
##  2 Baiomys         M            7.36
##  3 Chaetodipus     F           23.8 
##  4 Chaetodipus     M           24.7 
##  5 Dipodomys       F           55.2 
##  6 Dipodomys       M           56.2 
##  7 Neotoma         F          154.  
##  8 Neotoma         M          166.  
##  9 Onychomys       F           26.8 
## 10 Onychomys       M           26.2 
## 11 Perognathus     F            8.57
## 12 Perognathus     M            8.20
## 13 Peromyscus      F           22.5 
## 14 Peromyscus      M           20.6 
## 15 Reithrodontomys F           11.2 
## # … with 5 more rows
…
Here, tally() is the action applied to the groups created by group_by() and counts the total number of records for each category.

If there are many groups, tally() is not that useful on its own. For example, when we want to view the five most abundant species among the observations:

surveys %>%
    group_by(species) %>%
    tally()

## # A tibble: 40 x 2
##    species             n
##    <chr>           <int>
##  1 albigula         1252
##  2 audubonii          75
##  3 baileyi          2891
##  4 bilineata         303
##  5 brunneicapillus    50
##  6 chlorurus          39
##  7 clarki              1
##  8 eremicus         1299
##  9 flavus           1597
## 10 fulvescens         75
## # … with 30 more rows

Since there are 40 rows in this output, we would like to order the table to display the most abundant species first. In dplyr, we say that we want to arrange() the data.

surveys %>%
    group_by(species) %>%
    tally() %>%
    arrange(n)

## # A tibble: 40 x 2
##    species          n
##    <chr>        <int>
##  1 clarki           1
##  2 scutalatus       1
##  3 tereticaudus     1
##  4 tigris           1
##  5 uniparens        1
##  6 viridis          1
##  7 leucophrys       2
##  8 savannarum       2
##  9 fuscus           5
## 10 undulatus        5
## # … with 30 more rows
…
Great! Together with the genus plot, this definitely seem to explain most of the variance we see in the hindfoot length and weight measurements. It is still a bit messy as it appears like we have around 5 clusters, but there are 21 species in the legend.

surveys %>%
    filter(!is.na(hindfoot_length) & !is.na(weight)) %>%
    group_by(species) %>%
    tally() %>%
    arrange(desc(n))

## # A tibble: 21 x 2
##    species          n
##    <chr>        <int>
##  1 merriami      9739
##  2 penicillatus  2978
##  3 baileyi       2808
##  4 ordii         2793
##  5 megalotis     2429
##  6 torridus      2085
##  7 spectabilis   2026
##  8 flavus        1471
##  9 eremicus      1200
## 10 albigula      1046
## # … with 11 more rows

There is a big drop from 838 to 159, let’s include only those with more than 800 observations.

surveys_abun_species <- surveys %>%
    filter(!is.na(hindfoot_length) & !is.na(weight)) %>%
    group_by(species) %>%
    mutate(n = n()) %>% # add count value to each row
    filter(n > 800) %>%
    select(-n)

surveys_abun_species

## # A tibble: 30,320 x 13
## # Groups:   species [12]
##    record_id month   day  year plot_id species_id sex   hindfoot_length weight
##        <dbl> <dbl> <dbl> <dbl>   <dbl> <chr>      <chr>           <dbl>  <dbl>
##  1       845     5     6  1978       2 NL         M                  32    204
##  2      1164     8     5  1978       2 NL         M                  34    199
##  3      1261     9     4  1978       2 NL         M                  32    197
##  4      1756     4    29  1979       2 NL         M                  33    166
##  5      1818     5    30  1979       2 NL         M                  32    184
##  6      1882     7     4  1979       2 NL         M                  32    206
##  7      2133    10    25  1979       2 NL         F                  33    274
##  8      2184    11    17  1979       2 NL         F                  30    186
##  9      2406     1    16  1980       2 NL         F                  33    184
## 10      3000     5    18  1980       2 NL         F                  31     87
## # … with 30,310 more rows, and 4 more variables: genus <chr>, species <chr>,
## #   taxa <chr>, plot_type <chr>
…
