Manipulating and analyzing data with dplyr
…
This statement produces some output regarding which data type it found in each column. If we want to check this in more detail, we can print the variable’s value: surveys.

surveys

## # A tibble: 34,786 x 13
##    record_id month   day  year plot_id species_id sex   hindfoot_length weight
##        <dbl> <dbl> <dbl> <dbl>   <dbl> <chr>      <chr>           <dbl>  <dbl>
##  1         1     7    16  1977       2 NL         M                  32     NA
##  2        72     8    19  1977       2 NL         M                  31     NA
##  3       224     9    13  1977       2 NL         <NA>               NA     NA
##  4       266    10    16  1977       2 NL         <NA>               NA     NA
##  5       349    11    12  1977       2 NL         <NA>               NA     NA
##  6       363    11    12  1977       2 NL         <NA>               NA     NA
##  7       435    12    10  1977       2 NL         <NA>               NA     NA
##  8       506     1     8  1978       2 NL         <NA>               NA     NA
##  9       588     2    18  1978       2 NL         M                  NA    218
## 10       661     3    11  1978       2 NL         <NA>               NA     NA
## # … with 34,776 more rows, and 4 more variables: genus <chr>, species <chr>,
## #   taxa <chr>, plot_type <chr>
…
## # A tibble: 1 x 1
##   record_id
##       <dbl>
## 1         1

surveys[1, 6]   # first element in the 6th column

## # A tibble: 1 x 1
##   species_id
##   <chr>     
## 1 NL

surveys[, 1]    # first column in the data frame

## # A tibble: 34,786 x 1
##    record_id
##        <dbl>
##  1         1
##  2        72
##  3       224
##  4       266
##  5       349
##  6       363
##  7       435
##  8       506
##  9       588
## 10       661
## # … with 34,776 more rows

surveys[1]      # first column in the data frame

## # A tibble: 34,786 x 1
##    record_id
##        <dbl>
##  1         1
##  2        72
##  3       224
##  4       266
##  5       349
##  6       363
##  7       435
##  8       506
##  9       588
## 10       661
## # … with 34,776 more rows
…
# We can test if all elements are the same
0:10 == seq(0,10)

##  [1] TRUE TRUE TRUE TRUE TRUE TRUE TRUE TRUE TRUE TRUE TRUE

all(0:10 == seq(0,10))

## [1] TRUE

You can also exclude certain parts of a data frame using the “-” sign:

surveys[,-1]    # All columns, except the first

## # A tibble: 34,786 x 12
##    month   day  year plot_id species_id sex   hindfoot_length weight genus
##    <dbl> <dbl> <dbl>   <dbl> <chr>      <chr>           <dbl>  <dbl> <chr>
##  1     7    16  1977       2 NL         M                  32     NA Neot…
##  2     8    19  1977       2 NL         M                  31     NA Neot…
##  3     9    13  1977       2 NL         <NA>               NA     NA Neot…
##  4    10    16  1977       2 NL         <NA>               NA     NA Neot…
##  5    11    12  1977       2 NL         <NA>               NA     NA Neot…
##  6    11    12  1977       2 NL         <NA>               NA     NA Neot…
##  7    12    10  1977       2 NL         <NA>               NA     NA Neot…
##  8     1     8  1978       2 NL         <NA>               NA     NA Neot…
##  9     2    18  1978       2 NL         M                  NA    218 Neot…
## 10     3    11  1978       2 NL         <NA>               NA     NA Neot…
## # … with 34,776 more rows, and 3 more variables: species <chr>, taxa <chr>,
## #   plot_type <chr>
…
As well as using numeric values to subset a data.frame (or matrix), columns can be called by name, using one of the four following notations: 

surveys["species_id"]       # Result is a data.frame

## # A tibble: 34,786 x 1
##    species_id
##    <chr>     
##  1 NL        
##  2 NL        
##  3 NL        
##  4 NL        
##  5 NL        
##  6 NL        
##  7 NL        
##  8 NL        
##  9 NL        
## 10 NL        
## # … with 34,776 more rows

surveys[, "species_id"]     # Result is a data.frame

## # A tibble: 34,786 x 1
##    species_id
##    <chr>     
##  1 NL        
##  2 NL        
##  3 NL        
##  4 NL        
##  5 NL        
##  6 NL        
##  7 NL        
##  8 NL        
##  9 NL        
## 10 NL        
## # … with 34,776 more rows
…
Data wrangling with dplyr

Wrangling here is used in the sense of maneuvering, managing, controlling, and turning your data upside down and inside out to look at it from different angles in order to understand it. The package dplyr provides easy tools for the most common data manipulation tasks. It is built to work directly with data frames, with many common tasks optimized by being written in a compiled language (C++), this means that many operations run much faster than similar tools in R. An additional feature is the ability to work directly with data stored in an external database, such as SQL-databases. The ability to work with databases is great because you are able to work with much bigger datasets (100s of GB) than your computer could normally handle. We will not talk in detail about this in class, but there are great resources online to learn more (e.g. this lecture from Data Carpentry).

Selecting columns and filtering rows

We’re going to learn some of the most common dplyr functions: select(), filter(), mutate(), group_by(), and summarise(). To select columns of a data frame, use select(). The first argument to this function is the data frame (surveys), and the subsequent arguments are the columns to keep.

select(surveys, plot_id, species_id, weight, year)

## # A tibble: 34,786 x 4
##    plot_id species_id weight  year
##      <dbl> <chr>       <dbl> <dbl>
##  1       2 NL             NA  1977
##  2       2 NL             NA  1977
##  3       2 NL             NA  1977
##  4       2 NL             NA  1977
##  5       2 NL             NA  1977
##  6       2 NL             NA  1977
##  7       2 NL             NA  1977
##  8       2 NL             NA  1978
##  9       2 NL            218  1978
## 10       2 NL             NA  1978
## # … with 34,776 more rows

To choose rows based on a specific criteria, use filter():

filter(surveys, year == 1995)

## # A tibble: 1,180 x 13
##    record_id month   day  year plot_id species_id sex   hindfoot_length weight
##        <dbl> <dbl> <dbl> <dbl>   <dbl> <chr>      <chr>           <dbl>  <dbl>
##  1     22314     6     7  1995       2 NL         M                  34     NA
##  2     22728     9    23  1995       2 NL         F                  32    165
##  3     22899    10    28  1995       2 NL         F                  32    171
##  4     23032    12     2  1995       2 NL         F                  33     NA
##  5     22003     1    11  1995       2 DM         M                  37     41
##  6     22042     2     4  1995       2 DM         F                  36     45
##  7     22044     2     4  1995       2 DM         M                  37     46
##  8     22105     3     4  1995       2 DM         F                  37     49
##  9     22109     3     4  1995       2 DM         M                  37     46
## 10     22168     4     1  1995       2 DM         M                  36     48
## # … with 1,170 more rows, and 4 more variables: genus <chr>, species <chr>,
## #   taxa <chr>, plot_type <chr>
…
2 %in% c(2, 3, 4) # check whether 2 in c(2, 3, 4)

## [1] TRUE

All of the above conditionals are compatible with filter, with the key difference being that filter expects column names as part of conditional statements instead of individual numbers.

Chaining functions together using pipes

But what if you wanted to select and filter at the same time? There are three ways to do this: use intermediate steps, nested functions, or pipes. With intermediate steps, you essentially create a temporary data frame and use that as input to the next function. This can clutter up your workspace with lots of objects:

temp_df <- select(surveys, plot_id, species_id, weight, year)
filter(temp_df, year == 1995)

## # A tibble: 1,180 x 4
##    plot_id species_id weight  year
##      <dbl> <chr>       <dbl> <dbl>
##  1       2 NL             NA  1995
##  2       2 NL            165  1995
##  3       2 NL            171  1995
##  4       2 NL             NA  1995
##  5       2 DM             41  1995
##  6       2 DM             45  1995
##  7       2 DM             46  1995
##  8       2 DM             49  1995
##  9       2 DM             46  1995
## 10       2 DM             48  1995
## # … with 1,170 more rows

You can also nest functions (i.e. one function inside of another). This is handy, but can be difficult to read if too many functions are nested as things are evaluated from the inside out.

filter(select(surveys, plot_id, species_id, weight, year), year == 1995)

## # A tibble: 1,180 x 4
##    plot_id species_id weight  year
##      <dbl> <chr>       <dbl> <dbl>
##  1       2 NL             NA  1995
##  2       2 NL            165  1995
##  3       2 NL            171  1995
##  4       2 NL             NA  1995
##  5       2 DM             41  1995
##  6       2 DM             45  1995
##  7       2 DM             46  1995
##  8       2 DM             49  1995
##  9       2 DM             46  1995
## 10       2 DM             48  1995
## # … with 1,170 more rows

The last option, pipes, are a fairly recent addition to R. Pipes let you take the output of one function and send it directly to the next, which is useful when you need to do many things to the same dataset. Pipes in R look like %>% and are made available via the magrittr package that also is included in the tidyverse. If you use RStudio, you can type the pipe with Ctrl/Cmd + Shift + M.

surveys %>% 
    select(., plot_id, species_id, weight, year) %>% 
    filter(., year == 1995)

## # A tibble: 1,180 x 4
##    plot_id species_id weight  year
##      <dbl> <chr>       <dbl> <dbl>
##  1       2 NL             NA  1995
##  2       2 NL            165  1995
##  3       2 NL            171  1995
##  4       2 NL             NA  1995
##  5       2 DM             41  1995
##  6       2 DM             45  1995
##  7       2 DM             46  1995
##  8       2 DM             49  1995
##  9       2 DM             46  1995
## 10       2 DM             48  1995
## # … with 1,170 more rows

The . refers to the object that is passed from the previous line. In this example, the data frame surveys is passed to the . in the select() statement. Then, the modified data frame which is the result of the select() operation, is passed to the . in the filter() statement. Put more simply: whatever was the result from the line above the current line, will be used in the current line.

Since it gets a bit tedious to write out all the dots, dplyr allows for them to be omitted. By default, the pipe will pass its input to the first argument of the right hand side function; in dplyr, the first argument is always a data frame. The chunk below gives the same output as the one above:

surveys %>% 
    select(plot_id, species_id, weight, year) %>% 
    filter(year == 1995)

## # A tibble: 1,180 x 4
##    plot_id species_id weight  year
##      <dbl> <chr>       <dbl> <dbl>
##  1       2 NL             NA  1995
##  2       2 NL            165  1995
##  3       2 NL            171  1995
##  4       2 NL             NA  1995
##  5       2 DM             41  1995
##  6       2 DM             45  1995
##  7       2 DM             46  1995
##  8       2 DM             49  1995
##  9       2 DM             46  1995
## 10       2 DM             48  1995
## # … with 1,170 more rows
…
Note that the final data frame is the leftmost part of this expression.

A single expression can also be used to filter for several criteria, either matching all criteria (&) or any criteria (|):

surveys %>% 
    filter(taxa == 'Rodent' & sex == 'F') %>% 
    select(sex, taxa)

## # A tibble: 15,690 x 2
##    sex   taxa  
##    <chr> <chr> 
##  1 F     Rodent
##  2 F     Rodent
##  3 F     Rodent
##  4 F     Rodent
##  5 F     Rodent
##  6 F     Rodent
##  7 F     Rodent
##  8 F     Rodent
##  9 F     Rodent
## 10 F     Rodent
## # … with 15,680 more rows
…
Challenge

Using pipes, subset the survey data to include individuals collected before 1995 and retain only the columns year, sex, and weight.

Creating new columns with mutate

Frequently, you’ll want to create new columns based on the values in existing columns. For instance, you might want to do unit conversions, or find the ratio of values in two columns. For this we’ll use mutate().

To create a new column of weight in kg:

surveys %>%
    mutate(weight_kg = weight / 1000)

## # A tibble: 34,786 x 14
##    record_id month   day  year plot_id species_id sex   hindfoot_length weight
##        <dbl> <dbl> <dbl> <dbl>   <dbl> <chr>      <chr>           <dbl>  <dbl>
##  1         1     7    16  1977       2 NL         M                  32     NA
##  2        72     8    19  1977       2 NL         M                  31     NA
##  3       224     9    13  1977       2 NL         <NA>               NA     NA
##  4       266    10    16  1977       2 NL         <NA>               NA     NA
##  5       349    11    12  1977       2 NL         <NA>               NA     NA
##  6       363    11    12  1977       2 NL         <NA>               NA     NA
##  7       435    12    10  1977       2 NL         <NA>               NA     NA
##  8       506     1     8  1978       2 NL         <NA>               NA     NA
##  9       588     2    18  1978       2 NL         M                  NA    218
## 10       661     3    11  1978       2 NL         <NA>               NA     NA
## # … with 34,776 more rows, and 5 more variables: genus <chr>, species <chr>,
## #   taxa <chr>, plot_type <chr>, weight_kg <dbl>

You can also create a second new column based on the first new column within the same call of mutate():

surveys %>%
    mutate(weight_kg = weight / 1000,
           weight_kg2 = weight_kg * 2)

## # A tibble: 34,786 x 15
##    record_id month   day  year plot_id species_id sex   hindfoot_length weight
##        <dbl> <dbl> <dbl> <dbl>   <dbl> <chr>      <chr>           <dbl>  <dbl>
##  1         1     7    16  1977       2 NL         M                  32     NA
##  2        72     8    19  1977       2 NL         M                  31     NA
##  3       224     9    13  1977       2 NL         <NA>               NA     NA
##  4       266    10    16  1977       2 NL         <NA>               NA     NA
##  5       349    11    12  1977       2 NL         <NA>               NA     NA
##  6       363    11    12  1977       2 NL         <NA>               NA     NA
##  7       435    12    10  1977       2 NL         <NA>               NA     NA
##  8       506     1     8  1978       2 NL         <NA>               NA     NA
##  9       588     2    18  1978       2 NL         M                  NA    218
## 10       661     3    11  1978       2 NL         <NA>               NA     NA
## # … with 34,776 more rows, and 6 more variables: genus <chr>, species <chr>,
## #   taxa <chr>, plot_type <chr>, weight_kg <dbl>, weight_kg2 <dbl>

The first few rows of the output are full of NAs, so if we wanted to remove those we could insert a filter() in the chain:

surveys %>%
    filter(!is.na(weight)) %>%
    mutate(weight_kg = weight / 1000)

## # A tibble: 32,283 x 14
##    record_id month   day  year plot_id species_id sex   hindfoot_length weight
##        <dbl> <dbl> <dbl> <dbl>   <dbl> <chr>      <chr>           <dbl>  <dbl>
##  1       588     2    18  1978       2 NL         M                  NA    218
##  2       845     5     6  1978       2 NL         M                  32    204
##  3       990     6     9  1978       2 NL         M                  NA    200
##  4      1164     8     5  1978       2 NL         M                  34    199
##  5      1261     9     4  1978       2 NL         M                  32    197
##  6      1453    11     5  1978       2 NL         M                  NA    218
##  7      1756     4    29  1979       2 NL         M                  33    166
##  8      1818     5    30  1979       2 NL         M                  32    184
##  9      1882     7     4  1979       2 NL         M                  32    206
## 10      2133    10    25  1979       2 NL         F                  33    274
## # … with 32,273 more rows, and 5 more variables: genus <chr>, species <chr>,
## #   taxa <chr>, plot_type <chr>, weight_kg <dbl>
…
