More dplyr and ggplot, tidying and exporting data
…
Split-apply-combine… plot!

In this section, we will learn how to work with **dplyr** and **ggplot** together. Aided by the pipes (%>%), we can create a powerful data exploration workflow using these two packages.

Let’s calculate number of counts per year for each species. First we need to group the data and count records within each group:

surveys_abun_species %>%
    group_by(year, genus) %>%
    tally() %>%
    arrange(desc(n)) # Adding arrange just to compare with histogram

## # A tibble: 178 x 3
## # Groups:   year [26]
##     year genus           n
##    <dbl> <chr>       <int>
##  1  2002 Chaetodipus  1243
##  2  1983 Dipodomys     953
##  3  1985 Dipodomys     951
##  4  2000 Chaetodipus   913
##  5  1982 Dipodomys     896
##  6  1997 Dipodomys     830
##  7  2001 Chaetodipus   781
##  8  1981 Dipodomys     733
##  9  1987 Dipodomys     688
## 10  1980 Dipodomys     667
## # … with 168 more rows
…
Now we would like to split the line in each plot by the sex of each individual measured. To do that we need to make counts in the data frame grouped by year, species, and sex:

surveys_abun_species %>%
    group_by(year, species, sex) %>%
    tally()

## # A tibble: 575 x 4
## # Groups:   year, species [275]
##     year species     sex       n
##    <dbl> <chr>       <chr> <int>
##  1  1977 eremicus    M         2
##  2  1977 flavus      F        14
##  3  1977 flavus      M         8
##  4  1977 leucogaster F         1
##  5  1977 leucogaster <NA>      1
##  6  1977 megalotis   F         1
##  7  1977 megalotis   M         1
##  8  1977 merriami    F        75
##  9  1977 merriami    M       106
## 10  1977 ordii       F        10
## # … with 565 more rows
…
